^C:\SEMC\EX12\Q1\MESSAGESENDER.CPP|C:\SEMC\EX12\Q1\Q1.CPP|C:\SEMC\EX12\Q1\THREADS.CPP
C:\SEMC\EX12\Q1\DEBUG\VC142.PDB
C:\SEMC\EX12\Q1\DEBUG\VC142.IDB
C:\SEMC\EX12\Q1\DEBUG\THREADS.OBJ
C:\SEMC\EX12\Q1\DEBUG\Q1.OBJ
C:\SEMC\EX12\Q1\DEBUG\MESSAGESENDER.OBJ
^C:\SEMC\EX12\Q1\Q1.CPP
C:\SEMC\EX12\Q1\DEBUG\VC142.PDB
^C:\SEMC\EX12\Q1\THREADS.CPP
C:\SEMC\EX12\Q1\DEBUG\VC142.PDB
^C:\SEMC\EX12\Q1\MESSAGESENDER.CPP
C:\SEMC\EX12\Q1\DEBUG\VC142.PDB
C:\SEMC\EX12\Q1\DEBUG\VC142.IDB
C:\SEMC\EX12\Q1\DEBUG\MESSAGESENDER.OBJ
